Name,Sex,BirthDate,Age,Division,Event,Equipment,BodyweightKg,WeightClassKg,Squat1Kg,Squat2Kg,Squat3Kg,Squat4Kg,Best3SquatKg,Bench1Kg,Bench2Kg,Bench3Kg,Bench4Kg,Best3BenchKg,Deadlift1Kg,Deadlift2Kg,Deadlift3Kg,Deadlift4Kg,Best3DeadliftKg,TotalKg,Place
Lee Denmon,F,1963-10-31,44,F_MEM_1_APF,SBD,Multi-ply,55.6,56,172.5,-182.5,-182.5,,172.5,82.5,-87.5,,,82.5,150,-160,,,150,405,1
Debbie Damminga,F,1961-07-04,46,F_MEM_2_APF,SBD,Multi-ply,67.5,67.5,147.5,-157.5,-157.5,,147.5,-92.5,92.5,-97.5,,92.5,160,182.5,-187.5,,182.5,422.5,1
Marilynn Mathis,F,1952-12-13,55,F_MEM_4_APF,SBD,Multi-ply,74.2,75,145,155,-157.5,,155,102.5,110,-115,,110,130,145,150,,150,415,1
Marilynn Mathis,F,1952-12-13,55,F_MEM_4_APF,B,Multi-ply,74.2,75,,,,,,102.5,110,-115,,110,,,,,,110,1
Dorothy Rawe,F,1938-09-22,69,F_MEM_6_APF,B,Multi-ply,86.1,90,,,,,,45,-50,-52.5,,45,,,,,,45,1
Maegan Fontenot,F,1992-05-08,15,F_TEM_1_APF,SBD,Multi-ply,50.3,52,-132.5,132.5,152.5,,152.5,60,67.5,-70,,67.5,127.5,-137.5,137.5,142.5,137.5,357.5,1
Bethani Duncan,F,1992-10-06,15,F_TEM_1_APF,SBD,Multi-ply,54.4,56,137.5,142.5,-152.5,,142.5,67.5,70,75,,75,130,140,-145,,140,357.5,1
Sarah Simmons,F,1992-10-02,15,F_TEM_1_APF,SBD,Multi-ply,99.7,90+,127.5,137.5,147.5,,147.5,75,80,-85,,80,120,130,140,,140,367.5,1
Heather Desoto,F,1990-12-01,17,F_TEM_2_APF,SBD,Multi-ply,58.7,60,100,105,-115,,105,57.5,62.5,-67.5,,62.5,107.5,-112.5,112.5,,112.5,280,1
Whitney Dycus,F,1990-12-12,17,F_TEM_2_APF,SBD,Multi-ply,79.7,82.5,147.5,157.5,-165,,157.5,77.5,-82.5,82.5,-87.5,82.5,120,137.5,150,,150,390,1
Emily Moreno,F,1990-12-15,17,F_TEM_2_APF,SBD,Multi-ply,89.5,90,140,160,-182.5,,160,-77.5,-82.5,82.5,,82.5,135,160,-165,,160,402.5,1
Amanda Harris,F,1991-05-31,16,F_TEM_2_APF,B,Multi-ply,50.6,52,,,,,,70,75,-80,,75,,,,,,75,1
Brittany Myers,F,1990-02-09,18,F_TEM_3_APF,SBD,Multi-ply,57.9,60,142.5,150,-160,,150,67.5,72.5,-75,,72.5,132.5,145,152.5,-162.5,152.5,375,1
Daniel Jenkins,M,1984-11-29,23,M_JEM_APF,SBD,Multi-ply,99.2,100,295,320,-342.5,,320,185,207.5,-220,,207.5,220,230,-242.5,,230,757.5,1
Derek Jones,M,1988-04-08,20,M_JEM_APF,SBD,Multi-ply,96.1,100,267.5,-277.5,-277.5,,267.5,172.5,182.5,-190,,182.5,237.5,250,255,,255,705,2
Matt Smith #18,M,1987-01-12,21,M_JEM_APF,SBD,Multi-ply,122.7,125,265,-272.5,-272.5,,265,175,-187.5,-187.5,,175,242.5,-265,265,,265,705,1
Colt Havard,M,1995-01-08,13,M_TEM_1_APF,SBD,Multi-ply,47,52,87.5,100,107.5,,107.5,45,50,52.5,,52.5,87.5,97.5,-107.5,,97.5,257.5,1
Robert Johnson,M,1992-10-15,15,M_TEM_1_APF,SBD,Multi-ply,66.8,67.5,195,-210,210,,210,95,100,-105,,100,197.5,-207.5,215,,215,525,1
Zack Romine,M,1993-09-16,14,M_TEM_1_APF,SBD,Multi-ply,70.3,75,182.5,-200,200,,200,-102.5,102.5,107.5,,107.5,182.5,-192.5,-192.5,,182.5,490,1
Alex Frank,M,1993-11-11,14,M_TEM_1_APF,SBD,Multi-ply,74.5,75,137.5,-145,152.5,,152.5,80,-87.5,87.5,,87.5,162.5,182.5,-190,,182.5,422.5,2
Cody Burtschell,M,1994-10-22,13,M_TEM_1_APF,SBD,Multi-ply,76.1,82.5,110,-125,140,,140,82.5,-92.5,92.5,,92.5,125,142.5,-147.5,,142.5,375,1
Joey Manda,M,1994-11-08,13,M_TEM_1_APF,SBD,Multi-ply,79.4,82.5,85,102.5,-125,,102.5,45,57.5,62.5,,62.5,100,120,140,,140,305,2
Jesse Burttschell,M,1993-03-08,15,M_TEM_1_APF,SBD,Multi-ply,99.6,100,230,237.5,-250,,237.5,147.5,160,-170,,160,200,215,-220,,215,612.5,1
Scott Dobbins,M,1992-11-10,15,M_TEM_1_APF,SBD,Multi-ply,105.7,110,-260,270,300,320,300,150,165,-175,,165,187.5,202.5,210,,210,675,1
Collin Strother,M,1992-08-21,15,M_TEM_1_APF,SBD,Multi-ply,117.7,125,212.5,-230,-245,,212.5,140,155,-165,,155,192.5,207.5,-215,,207.5,575,1
Justin Lummus,M,1992-06-01,15,M_TEM_1_APF,SBD,Multi-ply,129.2,140,190,-195,195,,195,-122.5,-122.5,122.5,,122.5,180,190,-200,,190,507.5,1
Chris Carolan,M,1994-01-01,14,M_TEM_1_APF,B,Multi-ply,47.3,52,,,,,,42.5,-47.5,-47.5,,42.5,,,,,,42.5,1
Sidney Aulds,M,1990-08-15,17,M_TEM_2_APF,SBD,Multi-ply,59.9,60,-195,195,-200,,195,107.5,120,-132.5,,120,182.5,197.5,205,,205,520,1
Austin Goudeau,M,1990-05-05,17,M_TEM_2_APF,SBD,Multi-ply,58.7,60,187.5,-197.5,197.5,,197.5,-105,105,-112.5,,105,192.5,-210,-217.5,,192.5,495,2
Trent Myers,M,1991-08-20,16,M_TEM_2_APF,SBD,Multi-ply,62.1,67.5,160,175,182.5,,182.5,-92.5,92.5,100,,100,-175,175,-182.5,,175,457.5,1
Steve Hill,M,1992-03-03,16,M_TEM_2_APF,SBD,Multi-ply,79.8,82.5,165,172.5,-180,,172.5,100,107.5,110,,110,157.5,170,-177.5,,170,452.5,1
Nathan Bird,M,1991-04-02,17,M_TEM_2_APF,SBD,Multi-ply,89.7,90,215,-235,-235,,215,132.5,137.5,142.5,,142.5,215,-220,-220,,215,572.5,1
Louis Palmer,M,1992-04-03,16,M_TEM_2_APF,SBD,Multi-ply,109.3,110,227.5,240,252.5,,252.5,130,140,-150,,140,205,215,230,,230,622.5,1
Lorenzo Barnes,M,1991-10-16,16,M_TEM_2_APF,SBD,Multi-ply,140.1,140+,292.5,317.5,-330,,317.5,-200,200,215,-227.5,215,250,262.5,-275,,262.5,795,1
Conrad Cable,M,1991-12-03,16,M_TEM_2_APF,SBD,Multi-ply,156.4,140+,220,235,-262.5,,235,125,132.5,-142.5,,132.5,180,195,-202.5,,195,562.5,2
Michael Askew,M,1992-09-25,15,M_TEM_1_APF,B,Multi-ply,64,67.5,,,,,,115,127.5,-137.5,,127.5,,,,,,127.5,1
Jordan Dunn #1,M,1991-05-05,16,M_TEM_2_APF,B,Multi-ply,72.9,75,,,,,,187.5,-195,-195,,187.5,,,,,,187.5,1
Alex Burton,M,1990-12-07,17,M_TEM_2_APF,B,Multi-ply,140.2,140+,,,,,,-185,185,-202.5,,185,,,,,,185,1
Chris Sonnier,M,1988-12-06,19,M_TEM_3_APF,SBD,Multi-ply,57,60,190,-200,-200,,190,105,-112.5,112.5,,112.5,200,-220,220,-227.5,220,522.5,1
Chris Hill,M,1990-01-27,18,M_TEM_3_APF,SBD,Multi-ply,65,67.5,185,202.5,-217.5,,202.5,102.5,112.5,-130,,112.5,185,-197.5,-197.5,,185,500,1
Kaleb Simpson,M,1989-12-15,18,M_TEM_3_APF,SBD,Multi-ply,66.3,67.5,137.5,150,-160,,150,100,-105,-105,,100,-147.5,147.5,-157.5,,147.5,397.5,2
Brad Bell,M,1988-09-03,19,M_TEM_3_APF,SBD,Multi-ply,72.5,75,245,272.5,-285,,272.5,137.5,-147.5,-147.5,,137.5,227.5,-247.5,-247.5,,227.5,637.5,1
Brandon Gary,M,1990-04-16,18,M_TEM_3_APF,SBD,Multi-ply,70,75,240,-265,-265,,240,127.5,-142.5,142.5,,142.5,205,227.5,-247.5,,227.5,610,2
Blake Carter,M,1989-11-13,18,M_TEM_3_APF,SBD,Multi-ply,88,90,-265,265,-287.5,,265,157.5,-172.5,172.5,,172.5,-200,200,220,,220,657.5,1
Robert Westberry,M,1989-02-18,19,M_TEM_3_APF,SBD,Multi-ply,86.6,90,-235,235,-255,,235,145,-155,-155,,145,192.5,205,220,,220,600,2
Eric Lieux,M,1989-09-08,18,M_TEM_3_APF,SBD,Multi-ply,88.1,90,195,212.5,-220,,212.5,132.5,142.5,150,,150,195,205,217.5,,217.5,580,3
Lathan Gould,M,1990-10-09,17,M_TEM_2_APF,SBD,Multi-ply,108.9,110,-227.5,-227.5,227.5,,227.5,-140,140,-155,,140,-192.5,192.5,207.5,,207.5,575,1
Butch Dunn,M,1963-07-07,44,M_MEM_1_APF,SBD,Multi-ply,89.5,90,-312.5,-312.5,312.5,,312.5,-260,-260,260,-272.5,260,170,250,-260,,250,822.5,1
Joe Norman,M,1968-04-30,40,M_MEM_1_APF,SBD,Multi-ply,99.9,100,385,410,427.5,455,427.5,102.5,230,245,,245,-272.5,272.5,295,,295,967.5,1
Henry Fletcher,M,1963-09-20,44,M_MEM_1_APF,SBD,Multi-ply,98.6,100,387.5,-410,410,,410,230,-242.5,-242.5,,230,290,-320,-320,,290,930,2
Eric Maroscher,M,1967-01-27,41,M_MEM_1_APF,SBD,Multi-ply,98.3,100,307.5,320,327.5,,327.5,180,187.5,-192.5,,187.5,250,272.5,280,,280,795,3
Chris Sanford,M,1964-09-11,43,M_MEM_1_APF,SBD,Multi-ply,96.8,100,230,-250,-250,,230,145,165,-170,,165,215,-232.5,-232.5,,215,610,4
Keith Cavaretta,M,1966-06-24,41,M_MEM_1_APF,SBD,Multi-ply,108.6,110,202.5,222.5,245,,245,182.5,200,-210,,200,200,215,-230,,215,660,1
Eddie Bustillos,M,1964-01-16,44,M_MEM_1_APF,SB,Multi-ply,123.4,125,-345,345,-365,,345,250,-262.5,,,250,,,,,,,DQ
George Prince,M,1968-02-22,40,M_MEM_1_APF,SBD,Multi-ply,156,140+,-330,330,-365,,330,-280,287.5,-300,,287.5,295,-330,-330,,295,912.5,1
Joel Whitmore,M,1966-10-05,41,M_MEM_1_APF,SBD,Multi-ply,188.4,140+,-300,300,-320,,300,200,-210,-210,,200,205,215,225,,225,725,2
Michael Hummel,M,1964-11-17,43,M_MEM_1_APF,B,Multi-ply,108,110,,,,,,272.5,-280,-280,,272.5,,,,,,272.5,1
Phillip Wylie,M,1965-09-29,42,M_MEM_1_APF,B,Multi-ply,106.8,110,,,,,,237.5,-250,-250,,237.5,,,,,,237.5,2
Keith Southwood,M,1964-12-01,43,M_MEM_1_APF,B,Multi-ply,163.2,140+,,,,,,277.5,292.5,-320,,292.5,,,,,,292.5,1
Steve Lumpe,M,1960-05-28,47,M_MEM_2_APF,SBD,Multi-ply,74.1,75,230,247.5,-255,,247.5,140,150,155,,155,-192.5,192.5,-210,,192.5,595,1
Bob Benedix,M,1960-03-19,48,M_MEM_2_APF,SBD,Multi-ply,82.2,82.5,305,330,-342.5,,330,170,-180,,,170,245,-260,,,245,745,1
Tracy Frein,M,1958-08-27,49,M_MEM_2_APF,SBD,Multi-ply,89.2,90,-255,255,-272.5,,255,160,170,-182.5,,170,200,230,240,,240,665,1
Gregg Damminga,M,1962-01-07,46,M_MEM_2_APF,SBD,Multi-ply,124.5,125,-385,385,-410,,385,230,-250,-255,,230,310,325,-337.5,,325,940,1
Anthony Petrino,M,1959-02-20,49,M_MEM_2_APF,SBD,Multi-ply,140,140,350,382.5,400,,400,-287.5,287.5,-320,,287.5,265,287.5,-295,,287.5,975,1
Russ Barlow #1,M,1960-03-28,48,M_MEM_2_APF,SBD,Multi-ply,139.2,140,362.5,387.5,-410,,387.5,195,-215,215,,215,305,327.5,-342.5,,327.5,930,2
Tim Judge,M,1959-05-01,,M_MEM_2_APF,B,Multi-ply,67,67.5,,,,,,-162.5,162.5,-165,,162.5,,,,,,162.5,1
Nick Marinis,M,1962-09-21,45,M_MEM_2_APF,B,Multi-ply,82.4,82.5,,,,,,212.5,227.5,235,,235,,,,,,235,1
Tracy Frein,M,1958-08-27,49,M_MEM_2_APF,B,Multi-ply,89.2,90,,,,,,160,170,-182.5,,170,,,,,,170,1
Gregory Hayes,M,1961-09-15,46,M_MEM_2_APF,B,Multi-ply,97.6,100,,,,,,200,-220,227.5,,227.5,,,,,,227.5,1
John Hendrix,M,1962-07-13,45,M_MEM_2_APF,B,Multi-ply,99.6,100,,,,,,172.5,190,202.5,,202.5,,,,,,202.5,2
Frederick Goldberg,M,1959-02-20,49,M_MEM_2_APF,B,Multi-ply,110,110,,,,,,227.5,252.5,-257.5,,252.5,,,,,,252.5,1
Mike Carolan,M,1963-04-04,45,M_MEM_2_APF,B,Multi-ply,111.9,125,,,,,,207.5,-215,-215,,207.5,,,,,,207.5,1
Alan Cayer,M,1956-08-29,51,M_MEM_3_APF,SBD,Multi-ply,73.9,75,272.5,295,-310,,295,172.5,-190,190,195,190,270,285,-295,,285,770,1
Michael Steck,M,1956-10-26,51,M_MEM_3_APF,SBD,Multi-ply,87.6,90,-265,265,-280,,265,185,192.5,197.5,,197.5,175,197.5,-212.5,,197.5,660,1
Pat Roberts #1,M,1957-10-28,50,M_MEM_3_APF,SBD,Multi-ply,99.9,100,312.5,-337.5,-337.5,,312.5,167.5,-180,180,,180,282.5,292.5,300,,300,792.5,1
Larry Mistric,M,1956-08-07,51,M_MEM_3_APF,SBD,Multi-ply,109.6,110,345,377.5,-410,,377.5,232.5,255,-272.5,,255,262.5,290,-312.5,,290,922.5,1
Buddy McKee,M,1956-01-09,52,M_MEM_3_APF,SBD,Multi-ply,124.6,125,320,342.5,-365,,342.5,-257.5,257.5,272.5,-282.5,272.5,257.5,267.5,-277.5,,267.5,882.5,1
Dave Murphy #1,M,1954-12-14,53,M_MEM_3_APF,B,Multi-ply,108.3,110,,,,,,-240,240,-250,,240,,,,,,240,1
Roger Ryan,M,1955-09-17,52,M_MEM_3_APF,B,Multi-ply,121.4,125,,,,,,-287.5,287.5,-325,,287.5,,,,,,287.5,1
Mike McDaniel,M,1956-06-01,51,M_MEM_3_APF,B,Multi-ply,134.1,140,,,,,,247.5,-272.5,-272.5,,247.5,,,,,,247.5,1
Dennis Pittman,M,1950-02-19,58,M_MEM_4_APF,SBD,Multi-ply,81.8,82.5,-255,-255,255,,255,165,177.5,-187.5,,177.5,220,242.5,252.5,,252.5,685,1
Paul Boutte Sr,M,1949-05-25,58,M_MEM_4_APF,SBD,Multi-ply,89.2,90,237.5,-255,,,237.5,132.5,-155,-165,,132.5,192.5,-212.5,,,192.5,562.5,1
Robert Olinger,M,1950-05-17,57,M_MEM_4_APF,SBD,Multi-ply,94.5,100,227.5,240,-245,,240,147.5,155,-160,,155,210,-227.5,,,210,605,1
Brian Kline,M,1950-09-21,57,M_MEM_4_APF,B,Multi-ply,88.5,90,,,,,,175,-180,180,-200,180,,,,,,180,1
Ed Fitzpatrick,M,1948-05-29,59,M_MEM_4_APF,B,Multi-ply,107.9,110,,,,,,212.5,-220,220,-227.5,220,,,,,,220,1
Joe Nickele,M,1945-05-01,63,M_MEM_5_APF,SBD,Multi-ply,73.4,75,182.5,197.5,212.5,,212.5,105,-115,115,,115,212.5,230,,,230,557.5,1
Bob Gaynor,M,,62,M_MEM_5_APF,SBD,Multi-ply,89.6,90,-232.5,-232.5,232.5,,232.5,157.5,167.5,175,,175,262.5,290,,,290,697.5,1
John Burgard,M,1948-09-21,59,M_MEM_4_APF,SBD,Multi-ply,97.5,100,240,260,,,260,120,130,140,,140,220,235,-252.5,,235,635,1
Bill Jordan,M,1943-01-28,65,M_MEM_6_APF,SBD,Multi-ply,100.3,110,187.5,-215,-215,,187.5,75,120,125,,125,207.5,230,,,230,542.5,1
Vincent Breaux,M,1945-10-23,62,M_MEM_5_APF,B,Multi-ply,98,100,,,,,,-195,195,202.5,210,202.5,,,,,,202.5,1
Terry Lancaster,M,1942-10-11,65,M_MEM_6_APF,SBD,Multi-ply,98.9,100,215,227.5,-237.5,,227.5,175,182.5,-187.5,,182.5,227.5,250,-260,,250,660,1
Ron Edwards,M,1938-04-25,70,M_MEM_7_APF,SBD,Multi-ply,81.1,82.5,170,190,210,,210,120,137.5,-145,,137.5,170,190,-210,,190,537.5,1
Donald Judd,M,1937-07-03,70,M_MEM_7_APF,SBD,Multi-ply,80.6,82.5,-125,130,140,,140,60,62.5,,,62.5,160,170,,,170,372.5,2
Ron Edwards,M,1938-04-25,70,M_MEM_7_APF,B,Multi-ply,81.1,82.5,,,,,,120,137.5,-145,,137.5,,,,,,137.5,1
Bob Bassman,M,1938-02-11,70,M_MEM_7_APF,B,Multi-ply,98.7,100,,,,,,162.5,165,-182.5,,165,,,,,,165,1
Sean Finegan,M,1950-02-03,58,M_MEM_4_APF,B,Multi-ply,114.7,125,,,,,,-230,-230,230,,230,,,,,,230,1
Larry Hoover,M,1970-04-30,38,M_SEM_APF,SBD,Multi-ply,88.9,90,250,365,-377.5,,365,150,-252.5,252.5,,252.5,250,287.5,-307.5,,287.5,905,1
Raymond Pierce,M,1972-05-17,35,M_SEM_APF,SBD,Multi-ply,98.6,100,342.5,365,385,,385,-250,-250,250,,250,230,255,272.5,,272.5,907.5,1
Toby Irby,M,1974-05-06,33,M_SEM_APF,SBD,Multi-ply,109.2,110,-457.5,-457.5,457.5,,457.5,297.5,310,320,,320,305,320,330,,330,1107.5,1
Scott Johnson,M,1968-08-22,39,M_SEM_APF,SBD,Multi-ply,108.1,110,-305,305,-320,,305,-185,185,-205,,185,237.5,250,-260,,250,740,2
Lester Estevez,M,1972-08-23,35,M_SEM_APF,SBD,Multi-ply,124.5,125,-412.5,-412.5,412.5,,412.5,285,292.5,-300,,292.5,297.5,-310,310,,310,1015,1
Allan Mehan,M,1972-10-13,35,M_SEM_APF,SBD,Multi-ply,130.6,140,445,-490,490,,490,287.5,300,320,,320,312.5,327.5,-335,,327.5,1137.5,1
Craig Stutes,M,1973-12-19,34,M_SEM_APF,SBD,Multi-ply,137.5,140,420,465,480,,480,307.5,-320,320,,320,282.5,310,-340,,310,1110,2
Mark Hibbing,M,1968-11-05,39,M_SEM_APF,B,Multi-ply,87,90,,,,,,125,-152.5,-157.5,,125,,,,,,125,1
Erik Stark,M,1973-04-07,35,M_SEM_APF,B,Multi-ply,96.6,100,,,,,,190,200,205,,205,,,,,,205,1
Stewart Siemantel,M,1974-01-20,34,M_SEM_APF,B,Multi-ply,97,100,,,,,,-165,165,-182.5,,165,,,,,,165,2
