Division,WeightClassKg,Place,Name,Team,BodyweightKg,Best3SquatKg,Best3BenchKg,Best3DeadliftKg,TotalKg,Equipment,Event,Sex
Girls,47.85,1,Kendra Campbell,Splendora,47.49,120.2,47.63,115.67,283.5,Single-ply,SBD,F
Girls,47.85,2,Marian Gomez,Palacios,45.86,83.91,45.36,97.52,226.8,Single-ply,SBD,F
Girls,47.85,3,Julia Molina,Palacios,44.59,74.84,36.29,86.18,197.31,Single-ply,SBD,F
Girls,47.85,4,Hailey Zigal,Splendora,46.67,61.23,34.02,79.38,174.63,Single-ply,SBD,F
Girls,51.94,1,Olivia Ansley,Shepherd,51.35,117.93,56.7,113.4,288.03,Single-ply,SBD,F
Girls,51.94,2,Marisa Duke,Splendora,50.76,106.59,49.9,113.4,269.89,Single-ply,SBD,F
Girls,51.94,3,Jordan Alford,Splendora,51.8,120.2,47.63,102.06,269.89,Single-ply,SBD,F
Girls,51.94,4,Miranda Housman,New Caney Porter,50.44,102.06,54.43,106.59,263.08,Single-ply,SBD,F
Girls,51.94,5,Pamela Munoz,Shepherd,49.94,102.06,47.63,106.59,256.28,Single-ply,SBD,F
Girls,51.94,6,Abigail Courvelle,Shepherd,51.89,99.79,49.9,99.79,249.48,Single-ply,SBD,F
Girls,51.94,7,Roberta Sanchez,Shepherd,51.12,95.25,43.09,106.59,244.94,Single-ply,SBD,F
Girls,51.94,8,Ava Higginbotham,Splendora,50.3,92.99,38.56,92.99,224.53,Single-ply,SBD,F
Girls,51.94,9,Maritza Catalan,Channelview,50.39,68.04,29.48,83.91,181.44,Single-ply,SBD,F
Girls,51.94,10,Silva Sierra,Channelview,50.39,61.23,29.48,70.31,161.03,Single-ply,SBD,F
Girls,51.94,11,Miranda Godkin,Cleveland Tarkington,51.75,47.63,31.75,72.57,151.95,Single-ply,SBD,F
Girls,56.02,1,Alexis Bradford,Shepherd,55.93,138.35,61.23,129.27,328.85,Single-ply,SBD,F
Girls,56.02,2,Morgan McMahon,Katy Mayde Creek,54.66,113.4,54.43,127.01,294.84,Single-ply,SBD,F
Girls,56.02,3,Kaylee Lewis,Splendora,55.34,115.67,52.16,124.74,292.57,Single-ply,SBD,F
Girls,56.02,4,Kirsten Despain,Cleveland Tarkington,55.88,102.06,45.36,81.65,229.06,Single-ply,SBD,F
Girls,56.02,5,Hannah Blanchard,Splendora,53.89,92.99,38.56,83.91,215.46,Single-ply,SBD,F
Girls,56.02,6,Brandice Smith,Cleveland Tarkington,55.79,56.7,31.75,81.65,170.1,Single-ply,SBD,F
Girls,56.02,7,Noel Meisser,Trinity,53.02,52.16,29.48,68.04,149.69,Single-ply,SBD,F
Girls,56.02,8,Paige Erigan,Cleveland Tarkington,54.93,54.43,27.22,68.04,149.69,Single-ply,SBD,F
Girls,56.02,NS,Sara Lichnerowicz,Trinity,,,,,,Single-ply,SBD,F
Girls,56.02,DQ,Madelon Sadlor,Palestine,54.25,102.06,52.16,,,Single-ply,SBD,F
Girls,56.02,DQ,Joselin Lara De Leon,Channelview,55.79,74.84,,,,Single-ply,SBD,F
Girls,60.1,1,Nellie Perry,Palacios,59.83,120.2,63.5,111.13,294.84,Single-ply,SBD,F
Girls,60.1,2,Jaycee Graham,Splendora,59.74,120.2,56.7,115.67,292.57,Single-ply,SBD,F
Girls,60.1,3,Shelbie Swinhoe,New Caney Porter,60.06,106.59,52.16,122.47,281.23,Single-ply,SBD,F
Girls,60.1,4,Dixee Earhart,Splendora,56.56,102.06,52.16,104.33,258.55,Single-ply,SBD,F
Girls,60.1,5,Maddie Brown,Splendora,59.28,83.91,47.63,108.86,240.4,Single-ply,SBD,F
Girls,60.1,6,Rachel White,Palacios,59.69,77.11,52.16,92.99,222.26,Single-ply,SBD,F
Girls,60.1,7,Hailey Nelson,Willis,56.79,74.84,45.36,92.99,213.19,Single-ply,SBD,F
Girls,60.1,8,Katie Reyes,Palestine,57.52,81.65,29.48,90.72,201.85,Single-ply,SBD,F
Girls,60.1,9,Brittany Brooks,Cleveland Tarkington,56.29,70.31,34.02,88.45,192.78,Single-ply,SBD,F
Girls,60.1,10,Noemi Acosta,Trinity,58.79,68.04,34.02,88.45,190.51,Single-ply,SBD,F
Girls,60.1,11,Mackenzie Baker,Splendora,59.96,63.5,34.02,83.91,181.44,Single-ply,SBD,F
Girls,60.1,NS,Laura Garcia,Trinity,,,,,,Single-ply,SBD,F
Girls,60.1,DQ,Diocelin Gonzalez,Trinity,58.38,,,,,Single-ply,SBD,F
Girls,67.36,1,Mallorie Sandler,Palestine,65.59,174.63,79.38,129.27,383.29,Single-ply,SBD,F
Girls,67.36,2,Alyssa Patterson,Shepherd,60.83,136.08,61.23,138.35,335.66,Single-ply,SBD,F
Girls,67.36,3,Ashley Alvarez,Friendswood Clear Brook,64.18,127.01,77.11,129.27,333.39,Single-ply,SBD,F
Girls,67.36,4,Bre Haesche,Conroe Caney Creek,62.87,124.74,54.43,138.35,317.51,Single-ply,SBD,F
Girls,67.36,5,Skyler Thames,Willis,67.36,136.08,49.9,129.27,315.25,Single-ply,SBD,F
Girls,67.36,6,Meagon Overstreet,Shepherd,63.87,124.74,52.16,129.27,306.17,Single-ply,SBD,F
Girls,67.36,7,Erieanna Lopez,Shepherd,62.91,111.13,56.7,115.67,283.5,Single-ply,SBD,F
Girls,67.36,8,Megan Folson,Conroe Caney Creek,67.36,90.72,43.09,102.06,235.87,Single-ply,SBD,F
Girls,67.36,9,Adicin Morgan,Cleveland Tarkington,67.36,79.38,40.82,99.79,219.99,Single-ply,SBD,F
Girls,67.36,10,Kellcie Taylor,Cleveland Tarkington,65.41,92.99,36.29,86.18,215.46,Single-ply,SBD,F
Girls,67.36,11,Gabrielle Pendleton,Channelview,62.64,68.04,47.63,92.99,208.65,Single-ply,SBD,F
Girls,67.36,12,Laci Pafford,Cleveland Tarkington,65.5,79.38,45.36,81.65,206.38,Single-ply,SBD,F
Girls,67.36,13,Shianne Hunter,Cleveland Tarkington,62.14,81.65,40.82,72.57,195.04,Single-ply,SBD,F
Girls,67.36,14,Mady Ferretiz,Palacios,62.01,68.04,34.02,86.18,188.24,Single-ply,SBD,F
Girls,67.36,15,Brittany Rosales,New Caney,67.27,77.11,45.36,63.5,185.97,Single-ply,SBD,F
Girls,67.36,16,Kelsie Spencer,Beaumont Ozen,60.74,61.23,34.02,79.38,174.63,Single-ply,SBD,F
Girls,67.36,17,Hannah Schindler,Splendora,61.46,70.31,34.02,70.31,174.63,Single-ply,SBD,F
Girls,67.36,18,Lily Nolan,Palestine,65.59,70.31,24.95,74.84,170.1,Single-ply,SBD,F
Girls,67.36,DQ,Shaila Torrez,Palacios,63.14,79.38,,,,Single-ply,SBD,F
Girls,67.36,DQ,Stormy Bairfield,Splendora,64.95,61.23,,,,Single-ply,SBD,F
Girls,75.07,1,Paige Manzella,Splendora,67.9,145.15,56.7,154.22,356.07,Single-ply,SBD,F
Girls,75.07,2,Karina Ramon,Palacios,69.13,136.08,81.65,131.54,349.27,Single-ply,SBD,F
Girls,75.07,3,Crystal Garcia,Splendora,73.39,136.08,61.23,136.08,333.39,Single-ply,SBD,F
Girls,75.07,4,Kelly Pratt,Cleveland Tarkington,74.16,133.81,49.9,131.54,315.25,Single-ply,SBD,F
Girls,75.07,5,Cami Pennington,Shepherd,73.62,129.27,65.77,104.33,299.37,Single-ply,SBD,F
Girls,75.07,6,Infinity Marrow,Palestine,69.67,113.4,56.7,113.4,283.5,Single-ply,SBD,F
Girls,75.07,7,Baylee Dunn,Splendora,70.72,106.59,79.38,97.52,283.5,Single-ply,SBD,F
Girls,75.07,8,Kyndall Hill,Trinity,70.94,113.4,47.63,113.4,274.42,Single-ply,SBD,F
Girls,75.07,9,Delia Lopez,Palacios,69.72,95.25,52.16,124.74,272.16,Single-ply,SBD,F
Girls,75.07,10,Gissel Perez,Channelview,74.89,115.67,38.56,106.59,260.82,Single-ply,SBD,F
Girls,75.07,11,Morgan Eason,Splendora,70.49,99.79,38.56,115.67,254.01,Single-ply,SBD,F
Girls,75.07,12,Darby Kaminski,Conroe Caney Creek,74.3,92.99,43.09,99.79,235.87,Single-ply,SBD,F
Girls,75.07,13,Kiara McDonald,Splendora,71.67,83.91,47.63,97.52,229.06,Single-ply,SBD,F
Girls,75.07,14,Adreana Martinez,Trinity,73.71,74.84,38.56,102.06,215.46,Single-ply,SBD,F
Girls,82.33,1,Kimberlynn Patzold,New Caney Porter,79.42,154.22,92.99,163.29,410.5,Single-ply,SBD,F
Girls,82.33,2,Deanna Edwards,New Caney,81.15,149.69,79.38,129.27,358.34,Single-ply,SBD,F
Girls,82.33,3,Kelli Ramey,Trinity,78.11,120.2,43.09,120.2,283.5,Single-ply,SBD,F
Girls,82.33,4,Zabrina Kimberline,Livingston,77.61,115.67,45.36,106.59,267.62,Single-ply,SBD,F
Girls,82.33,5,Hanna Wolf,Friendswood Clear Brook,81.78,90.72,49.9,117.93,258.55,Single-ply,SBD,F
Girls,82.33,6,Haley Chapman,Cleveland Tarkington,80.42,104.33,47.63,99.79,251.74,Single-ply,SBD,F
Girls,82.33,7,Mirna Lopez,Palacios,75.7,90.72,43.09,113.4,247.21,Single-ply,SBD,F
Girls,82.33,8,Halie Byers,Splendora,77.2,83.91,47.63,111.13,242.67,Single-ply,SBD,F
Girls,82.33,NS,Adrianna Ferretiz,Palestine,,,,,,Single-ply,SBD,F
Girls,82.33,NS,Jennifer Sierra,Channelview,,,,,,Single-ply,SBD,F
Girls,82.33,NS,De'Jeanna Payne,Channelview,,,,,,Single-ply,SBD,F
Girls,82.33,DQ,Somero Madisson,Friendswood Clear Brook,76.93,77.11,,,,Single-ply,SBD,F
Girls,82.33,DQ,Allie Barron,Willis,78.38,127.01,,,,Single-ply,SBD,F
Girls,82.33,DQ,Marisa Crider,Conroe Caney Creek,81.6,136.08,,,,Single-ply,SBD,F
Girls,90.04,1,Lacey Tillis,Palestine,86.86,142.88,65.77,161.03,369.68,Single-ply,SBD,F
Girls,90.04,2,Sharee Deckard,Willis,86.23,136.08,58.97,111.13,306.17,Single-ply,SBD,F
Girls,90.04,3,Michelle Landry,Beaumont Ozen,86.41,111.13,61.23,117.93,290.3,Single-ply,SBD,F
Girls,90.04,4,Carolina Escamilla,New Caney,83.73,120.2,52.16,115.67,288.03,Single-ply,SBD,F
Girls,90.04,5,Maya Townsend,Friendswood Clear Brook,83.37,102.06,58.97,106.59,267.62,Single-ply,SBD,F
Girls,90.04,6,Jasmine O'Bryant,New Caney,87.82,81.65,47.63,79.38,208.65,Single-ply,SBD,F
Girls,100.02,1,LaDazeja Charles,Channelview,97.48,120.2,56.7,131.54,308.44,Single-ply,SBD,F
Girls,100.02,2,Hannah Havard,Willis,94.48,136.08,45.36,113.4,294.84,Single-ply,SBD,F
Girls,100.02,3,Marlene Zumaya,Splendora,97.98,102.06,58.97,117.93,278.96,Single-ply,SBD,F
Girls,100.02,4,Miranda Fuentes,Palacios,99.52,88.45,52.16,102.06,242.67,Single-ply,SBD,F
Girls,100.02,5,Dominique Palacious,Friendswood Clear Brook,93.12,99.79,40.82,68.04,208.65,Single-ply,SBD,F
Girls,100.02,DQ,Tory Rogers,Conroe Caney Creek,94.89,133.81,74.84,,,Single-ply,SBD,F
Girls,100.02+,1,Kaley Golnisch,Conroe Caney Creek,116.53,170.1,83.91,124.74,378.75,Single-ply,SBD,F
Girls,100.02+,2,Hilda Zumaya,Splendora,103.78,129.27,70.31,133.81,333.39,Single-ply,SBD,F
Girls,100.02+,3,Keyandra Adams,Shepherd,101.88,113.4,56.7,124.74,294.84,Single-ply,SBD,F
Girls,100.02+,4,Ja'Kayla Smith,Livingston,119.02,92.99,56.7,88.45,238.14,Single-ply,SBD,F
Girls,100.02+,5,Sinthia Castilla,Trinity,100.83,104.33,43.09,88.45,235.87,Single-ply,SBD,F
Girls,100.02+,6,Brooke Potts,Palacios,100.11,86.18,54.43,90.72,231.33,Single-ply,SBD,F
Girls,100.02+,7,Madison Hall #1,Channelview,106.96,90.72,47.63,90.72,229.06,Single-ply,SBD,F
Girls,100.02+,DQ,Melanie McVay,Willis,126.28,174.63,83.91,,,Single-ply,SBD,F
Girls,,NS,Pam Corona,New Caney Porter,,,,,,Single-ply,SBD,F
Girls,,NS,Donesha Brown,Beaumont Ozen,,,,,,Single-ply,SBD,F
Girls,,NS,Tiaara Walker,Beaumont Ozen,,,,,,Single-ply,SBD,F
Girls,,NS,Natasha Richard,Beaumont Ozen,,,,,,Single-ply,SBD,F
