Name,Sex,Division,BirthDate,BodyweightKg,WeightClassKg,Squat1Kg,Squat2Kg,Squat3Kg,Best3SquatKg,Bench1Kg,Bench2Kg,Bench3Kg,Best3BenchKg,Deadlift1Kg,Deadlift2Kg,Deadlift3Kg,Best3DeadliftKg,TotalKg,Place,Event,Equipment
Sarah Hlaing,F,Open,,42.6,47,90,97.5,-102.5,97.5,40,45,-50,45,115,125,135,135,277.5,1,SBD,Raw
Vicky Kijumnuayporn,F,Open,,46.45,47,117.5,122.5,125,125,77.5,-82.5,82.5,82.5,147.5,152.5,-155,152.5,360,1,SBD,Raw
Hidemi Shishido,F,Open,,51.85,52,135,142.5,-147.5,142.5,67.5,72.5,-75,72.5,145,152.5,158,158,373,1,SBD,Raw
Jackie Ngo,F,Open,,51.45,52,95,102.5,105,105,55,-60,-60,55,-150,150,157.5,157.5,317.5,2,SBD,Raw
Pei Gan,F,Open,,51.7,52,97.5,102.5,105,105,62.5,65,67.5,67.5,127.5,135,-142.5,135,307.5,3,SBD,Raw
Alyssa Gratil,F,Open,,51.7,52,-97.5,97.5,-102.5,97.5,55,60,-62.5,60,127.5,132.5,-137.5,132.5,290,4,SBD,Raw
Veronika Vroharis,F,Open,,49.05,52,82.5,-87.5,87.5,87.5,45,47.5,-50,47.5,120,-125,125,125,260,5,SBD,Raw
April Orford,F,Open,,56.3,57,100,107.5,-112.5,107.5,55,57.5,60,60,120,132.5,137.5,137.5,305,1,SBD,Raw
Sarah Van,F,Open,,56.65,57,107.5,115,-117.5,115,52.5,55,-57.5,55,115,122.5,132.5,132.5,302.5,2,SBD,Raw
Natalie Cotter-Moroz,F,Open,,53.35,57,75,80,82.5,82.5,47.5,50,52.5,52.5,115,120,122.5,122.5,257.5,3,SBD,Raw
Jasmin Hussain,F,Open,,55.95,57,105,115,-120,115,-72.5,-75,-75,,125,130,-140,130,,DQ,SBD,Raw
Erica Koo,F,Open,,56.95,57,-120,-130,-130,,77.5,85,-87.5,85,130,-142.5,-142.5,130,,DQ,SBD,Raw
Rachel Jones #1,F,Open,,59.35,63,152.5,160,-168,160,80,82.5,-85,82.5,175,182.5,188,188,430.5,1,SBD,Raw
Charissa Ly,F,Open,,62.85,63,145,150,155,155,62.5,65,67.5,67.5,145,155,160,160,382.5,2,SBD,Raw
Julianne Thammavong,F,Open,,62.4,63,140,145,-147.5,145,77.5,80,-82.5,80,140,147.5,152.5,152.5,377.5,3,SBD,Raw
Emily Lai,F,Open,,62.1,63,122.5,130,132.5,132.5,-75,75,-80,75,140,150,-152.5,150,357.5,4,SBD,Raw
Renee Coleman,F,Open,,61.95,63,100,105,110,110,52.5,57.5,62.5,62.5,125,130,135,135,307.5,5,SBD,Raw
Jasmine Tavakoli,F,Open,,61.1,63,90,-100,-102.5,90,57.5,60,62.5,62.5,135,145,152.5,152.5,305,6,SBD,Raw
Mel Anderson,F,Open,,60.5,63,95,-100,100,100,50,52.5,55,55,125,137.5,-145,137.5,292.5,7,SBD,Raw
Hieu Le #3,F,Open,,61.3,63,100,107.5,-112.5,107.5,50,55,-57.5,55,105,-112.5,-112.5,105,267.5,8,SBD,Raw
Liz Napoli,F,Open,,66.9,69,147.5,155,-160,155,90,92.5,-95.5,92.5,175,182.5,187,187,434.5,1,SBD,Raw
Rachele Griffin,F,Open,,68.25,69,130,140,150,150,85,-90,90,90,155,172.5,-187.5,172.5,412.5,2,SBD,Raw
Suji Jeon,F,Open,,68.9,69,125,130,135,135,55,60,-62.5,60,130,140,-145,140,335,3,SBD,Raw
Desiree Hiser,F,Open,,68.1,69,-107.5,107.5,-112.5,107.5,50,52.5,-55,52.5,135,150,-160,150,310,4,SBD,Raw
Emily Seymour,F,Open,,71.75,76,145,153,157.5,157.5,85,-90,-90,85,177.5,185,190,190,432.5,1,SBD,Raw
Courtney Miller,F,Open,,76,76,-140,145,152.5,152.5,65,70,72.5,72.5,155,-160,,155,380,2,SBD,Raw
Lisa Turner,F,Open,,71.55,76,105,112.5,117.5,117.5,62.5,65,-67.5,65,-140,150,160,160,342.5,3,SBD,Raw
Cammilla White,F,Open,,83.45,84,140,147.5,-152.5,147.5,82.5,-85,-85,82.5,140,147.5,-152.5,147.5,377.5,1,SBD,Raw
Dana Silang,F,Open,,82.6,84,115,122.5,-127.5,122.5,52.5,55,57.5,57.5,142.5,150,-155,150,330,2,SBD,Raw
Ebony Puru,F,Open,,83.65,84,-100,100,105,105,50,55,60,60,130,140,147.5,147.5,312.5,3,SBD,Raw
Rubina Tauasa,F,Open,,112.5,84+,170,185,200,200,90,-95,-102.5,90,170,185,205,205,495,1,SBD,Raw
Najat Khoury,F,Open,,147.35,84+,175,-187.5,192.5,192.5,85,95,102.5,102.5,175,190,200,200,495,2,SBD,Raw
Christine Marin,F,Open,,101.5,84+,-175,185,-192.5,185,60,65,-70,65,175,187.5,195,195,445,3,SBD,Raw
Carolina Pagadizabal,F,Open,,99.95,84+,112.5,120,127.5,127.5,57.5,60,62.5,62.5,152.5,165,-172.5,165,355,4,SBD,Raw
Danny Le,M,Open,,65.9,66,200,210,217.5,217.5,140,145,-147.5,145,227.5,242.5,-251,242.5,605,1,SBD,Raw
Andrew Trieu,M,Open,,65.4,66,187.5,200,207.5,207.5,122.5,130,-132.5,130,215,230,240,240,577.5,2,SBD,Raw
Ali Bukhari,M,Open,,65.8,66,155,-165,170,170,85,92.5,95,95,210,225,-240,225,490,3,SBD,Raw
Raymond Prasetya,M,Open,,64.45,66,155,167.5,-180,167.5,90,97.5,-100,97.5,190,205,215,215,480,4,SBD,Raw
Thomas Duong,M,Open,,73.85,74,-220,220,230,230,140,147.5,-152.5,147.5,247.5,261,265,265,642.5,1,SBD,Raw
Trinh Dinh,M,Open,,73.8,74,207.5,220,227.5,227.5,137.5,145,-152.5,145,247.5,-257.5,-257.5,247.5,620,2,SBD,Raw
Moe Faour,M,Open,,73.45,74,200,215,222.5,222.5,127.5,132.5,135,135,220,235,242.5,242.5,600,3,SBD,Raw
Michael Walsh,M,Open,,69.8,74,162.5,170,177.5,177.5,120,127.5,132.5,132.5,215,230,240,240,550,4,SBD,Raw
Wayne Leong,M,Open,,73.1,74,-170,170,182.5,182.5,125,132.5,-137.5,132.5,215,225,235,235,550,5,SBD,Raw
Waha Bhaijee,M,Open,,72.3,74,155,170,180,180,120,127.5,-132.5,127.5,200,220,235,235,542.5,6,SBD,Raw
Paolo Duru,M,Open,,72.5,74,150,160,167.5,167.5,95,102.5,105,105,240,252.5,-261,252.5,525,7,SBD,Raw
Jason Kumar,M,Open,,74,74,-165,165,-175,165,117.5,-122.5,-122.5,117.5,200,220,-225,220,502.5,8,SBD,Raw
Nealan Vettivelu,M,Open,,72.7,74,165,172.5,-182.5,172.5,85,90,-95,90,175,187.5,200,200,462.5,9,SBD,Raw
Tait Brown,M,Open,,67.5,74,160,170,-175,170,107.5,112.5,-115,112.5,155,170,-180,170,452.5,10,SBD,Raw
Benjamin Maximos,M,Open,,72.7,74,140,150,160,160,95,102.5,-107.5,102.5,160,170,180,180,442.5,11,SBD,Raw
Jacob Mose,M,Open,,82.15,83,235,242.5,245,245,145,152.5,155,155,250,265,275,275,675,1,SBD,Raw
Jay Raffaut,M,Open,,81.35,83,190,200,207.5,207.5,137.5,-142.5,-142.5,137.5,260,270,-275,270,615,2,SBD,Raw
Lewis Chen,M,Open,,81.4,83,202.5,217.5,-227.5,217.5,107.5,115,120,120,230,247.5,260,260,597.5,3,SBD,Raw
Tai Uong,M,Open,,81.65,83,-195,195,205,205,125,130,135,135,220,235,245,245,585,4,SBD,Raw
Angus McDonald,M,Open,,83,83,185,192.5,200,200,125,-130,-130,125,222.5,237.5,-250,237.5,562.5,5,SBD,Raw
Kevin Chan,M,Open,,79.45,83,142.5,155,165,165,107.5,-117.5,-117.5,107.5,205,220,225,225,497.5,6,SBD,Raw
Michael Sharff,M,Open,,81.35,83,165,175,182.5,182.5,90,95,97.5,97.5,195,205,210,210,490,7,SBD,Raw
Jesse Hutabarat,M,Open,,86.9,93,215,227.5,235,235,152.5,160,162.5,162.5,257.5,275,285,285,682.5,1,SBD,Raw
Merlin Viet,M,Open,,91.95,93,235,250,-257.5,250,145,155,162.5,162.5,240,255,265,265,677.5,2,SBD,Raw
Laurence Nguyen,M,Open,,91.25,93,230,245,250,250,125,132.5,-137.5,132.5,275,292.5,-302.5,292.5,675,3,SBD,Raw
Matthew Rains,M,Open,,91.35,93,202.5,215,220,220,135,142.5,-147.5,142.5,255,270,282.5,282.5,645,4,SBD,Raw
Scott Walker #1,M,Open,,88.15,93,200,220,230,230,135,142.5,-145,142.5,250,270,-277.5,270,642.5,5,SBD,Raw
Luke Salemi,M,Open,,92.7,93,210,222.5,230,230,127.5,-135,-135,127.5,240,255,267.5,267.5,625,6,SBD,Raw
Laine Williamson,M,Open,,91.95,93,205,215,-222.5,215,120,125,-127.5,125,245,260,270,270,610,7,SBD,Raw
Joshua Shallita,M,Open,,89,93,195,205,212.5,212.5,132.5,140,-142.5,140,230,247.5,252.5,252.5,605,8,SBD,Raw
Jose Jurado,M,Open,,92.35,93,187.5,-197.5,200,200,115,122.5,125,125,230,245,-252.5,245,570,9,SBD,Raw
Mathew Darke,M,Open,,92.1,93,-210,210,-220,210,120,130,-137.5,130,210,225,-237.5,225,565,10,SBD,Raw
Hayden Laws,M,Open,,90.8,93,200,212.5,-225,212.5,120,125,127.5,127.5,200,220,-230,220,560,11,SBD,Raw
Zak Bosco,M,Open,,92.35,93,185,195,-200,195,125,135,-140,135,205,217.5,227.5,227.5,557.5,12,SBD,Raw
Matthew Vartuli,M,Open,,92,93,185,195,200,200,130,135,-137.5,135,200,210,-225,210,545,13,SBD,Raw
Brad Hooper-Matthias,M,Open,,92.35,93,190,-207.5,-207.5,190,125,-132.5,-132.5,125,200,212.5,-222.5,212.5,527.5,14,SBD,Raw
Matthew Roxby,M,Open,,86.8,93,180,187.5,192.5,192.5,105,110,115,115,200,210,217.5,217.5,525,15,SBD,Raw
Kenan Ozdemir,M,Open,,90.25,93,-185,190,-200,190,110,120,-125,120,185,205,-227.5,205,515,16,SBD,Raw
Daniel Felstein,M,Open,,100.9,105,242.5,-255,265,265,147.5,155,160,160,270,285,-295,285,710,1,SBD,Raw
Chris Aslan,M,Open,,103.6,105,242.5,255,265,265,160,165,170,170,255,275,-292.5,275,710,2,SBD,Raw
David Mason,M,Open,,101.6,105,230,242.5,250,250,150,157.5,162.5,162.5,275,287.5,295,295,707.5,3,SBD,Raw
Nathan Yerbury,M,Open,,102.3,105,215,-235,235,235,155,165,-170,165,270,295,307.5,307.5,707.5,4,SBD,Raw
Thulani Gapara,M,Open,,102.7,105,220,235,250,250,145,155,162.5,162.5,267.5,-287.5,-287.5,267.5,680,5,SBD,Raw
Benjamin Grant,M,Open,,101.15,105,235,255,-270,255,112.5,122.5,130,130,-265,285,-300,285,670,6,SBD,Raw
Luke Brennan,M,Open,,103,105,225,240,,240,125,-130,-130,125,270,290,-310,290,655,7,SBD,Raw
Shaun Highfield,M,Open,,103.2,105,192.5,207.5,215,215,147.5,157.5,160,160,235,255,265,265,640,8,SBD,Raw
Dave Wiseman,M,Open,,104,105,220,232.5,237.5,237.5,145,-155,-155,145,220,232.5,240,240,622.5,9,SBD,Raw
Michael Cornell,M,Open,,103.15,105,215,225,232.5,232.5,122.5,132.5,140,140,215,232.5,245,245,617.5,10,SBD,Raw
Vitor Taranto,M,Open,,104.85,105,-210,210,220,220,120,125,130,130,225,240,255,255,605,11,SBD,Raw
Dylan Rudd,M,Open,,99.6,105,-200,205,215,215,120,127.5,132.5,132.5,220,-240,250,250,597.5,12,SBD,Raw
Zachariah Camp,M,Open,,102.5,105,180,192.5,200,200,125,132.5,137.5,137.5,235,250,260,260,597.5,13,SBD,Raw
Nobert Euese,M,Open,,102.6,105,190,200,207.5,207.5,130,137.5,140,140,210,225,-240,225,572.5,14,SBD,Raw
Joshua Maruna,M,Open,,99.95,105,-195,200,210,210,115,120,130,130,215,227.5,-237.5,227.5,567.5,15,SBD,Raw
Mitchell Kajan,M,Open,,104.45,105,180,192.5,205,205,140,150,-160,150,160,165,175,175,530,16,SBD,Raw
Jared Boccanfuso,M,Open,,99.15,105,165,175,180,180,110,-115,-115,110,210,225,-247.5,225,515,17,SBD,Raw
Mark Hamer,M,Open,,115.5,120,185,200,210,210,145,147.5,150,150,225,245,260,260,620,1,SBD,Raw
Aaron Wotton,M,Open,,119.4,120,260,267.5,280,280,-157.5,-157.5,-157.5,,260,277.5,282.5,282.5,,DQ,SBD,Raw
Blake Walsh,M,Open,,134.9,120+,235,252.5,262.5,262.5,195,210.5,,210.5,200,232.5,260,260,733,1,SBD,Raw
Jonathon George,M,Open,,65.75,66,,,,,150,-160,160,160,,,,,160,1,B,Raw
Linas Valuckas,M,Open,,91.15,93,,,,,150,,,150,,,,,150,1,B,Raw
Andrew Caltabiano,M,Open,,126.55,120+,,,,,220,230,-240,230,,,,,230,1,B,Raw
