Division,WeightClassKg,Place,Name,Team,BodyweightKg,Best3SquatKg,Best3BenchKg,Best3DeadliftKg,TotalKg,Equipment,Event,Sex
Boys,51.71,1,Issrael Rosas,Bruceville-Eddy,51.71,127.01,70.31,142.88,340.19,Single-ply,SBD,M
Boys,51.71,2,Nathan Jeter,Rockdale,51.53,117.93,74.84,142.88,335.66,Single-ply,SBD,M
Boys,51.71,3,Enrique Davila,San Saba,51.62,131.54,61.23,140.61,333.39,Single-ply,SBD,M
Boys,51.71,4,Jay King,Bosqueville,50.44,124.74,74.84,131.54,331.12,Single-ply,SBD,M
Boys,51.71,5,Bryce Leatherwood,Dublin,50.53,122.47,72.57,136.08,331.12,Single-ply,SBD,M
Boys,51.71,6,Weslee Duke,Groesbeck,51.26,111.13,65.77,136.08,312.98,Single-ply,SBD,M
Boys,51.71,7,Mark Valdez,Brady,49.08,104.33,65.77,136.08,306.17,Single-ply,SBD,M
Boys,51.71,8,Miguel Gallegos,Dublin,50.98,102.06,63.5,124.74,290.3,Single-ply,SBD,M
Boys,51.71,9,Zander Henderson,Troy,48.35,104.33,63.5,120.2,288.03,Single-ply,SBD,M
Boys,51.71,10,Fabian Young,Blanco,48.9,102.06,56.7,124.74,283.5,Single-ply,SBD,M
Boys,51.71,11,Jayden Crouch,Hico,50.8,106.59,52.16,120.2,278.96,Single-ply,SBD,M
Boys,51.71,DQ,Alexis Moreno,Florence,51.35,,,,,Single-ply,SBD,M
Boys,51.71,DQ,Bryson Taylor,Holland,49.8,90.72,61.23,,,Single-ply,SBD,M
Boys,55.79,1,Eli DeHoyos,Brady,54.88,154.22,92.99,174.63,421.84,Single-ply,SBD,M
Boys,55.79,2,ZaQuavion Golden,Hearne,55.61,149.69,86.18,170.1,405.97,Single-ply,SBD,M
Boys,55.79,3,Brady Bearden,Troy,54.34,154.22,92.99,151.95,399.16,Single-ply,SBD,M
Boys,55.79,4,Ricky Lopez,Dublin,54.52,142.88,79.38,151.95,374.21,Single-ply,SBD,M
Boys,55.79,5,Bernardo Garcia,Itasca,55.34,149.69,77.11,142.88,369.68,Single-ply,SBD,M
Boys,55.79,6,Caidn Kocian,West,55.25,142.88,77.11,145.15,365.14,Single-ply,SBD,M
Boys,55.79,7,Elijah Dyer,Early,55.79,131.54,77.11,142.88,351.53,Single-ply,SBD,M
Boys,55.79,8,Hanner Campbell,Early,52.89,142.88,58.97,145.15,347,Single-ply,SBD,M
Boys,55.79,9,Adriel Ruiz,Luling,55.79,129.27,74.84,140.61,344.73,Single-ply,SBD,M
Boys,55.79,10,Gabe Gonzales,Blanco,55.7,111.13,70.31,138.35,319.78,Single-ply,SBD,M
Boys,55.79,11,Alex Vargas,Rogers,53.16,124.74,70.31,120.2,315.25,Single-ply,SBD,M
Boys,55.79,12,Arnoldo Moreno,Dublin,53.52,111.13,56.7,136.08,303.91,Single-ply,SBD,M
Boys,59.87,1,Trevor Uptmor,West,59.24,185.97,102.06,176.9,464.93,Single-ply,SBD,M
Boys,59.87,2,Khyran Jones,McGregor,59.33,181.44,86.18,195.04,462.66,Single-ply,SBD,M
Boys,59.87,3,Joseph Rangel,Cameron Yoe,59.24,156.49,88.45,199.58,444.52,Single-ply,SBD,M
Boys,59.87,4,Joshua Lopez,Cameron Yoe,56.61,165.56,97.52,174.63,437.72,Single-ply,SBD,M
Boys,59.87,5,Joel Santillan,Clifton,58.06,151.95,102.06,181.44,435.45,Single-ply,SBD,M
Boys,59.87,6,Cale Wade,Early,59.06,174.63,111.13,136.08,421.84,Single-ply,SBD,M
Boys,59.87,7,Brenden Woljevach,Florence,59.69,158.76,86.18,170.1,415.04,Single-ply,SBD,M
Boys,59.87,8,Luis Perez,Hamilton,59.51,158.76,72.57,172.37,403.7,Single-ply,SBD,M
Boys,59.87,9,Jair Perez,Little River Academy,59.87,158.76,88.45,156.49,403.7,Single-ply,SBD,M
Boys,59.87,10,Jeovanny Navarro,Rockdale,58.15,142.88,102.06,156.49,401.43,Single-ply,SBD,M
Boys,59.87,11,Stetson Thompson,Riesel,59.87,129.27,72.57,156.49,358.34,Single-ply,SBD,M
Boys,59.87,DQ,Ruben Salazar,West,58.97,,,,,Single-ply,SBD,M
Boys,67.13,1,Fausto Rodriguez,West,63.32,219.99,133.81,199.58,553.38,Single-ply,SBD,M
Boys,67.13,2,Christian Flores,Blanco,66.95,217.72,131.54,195.04,544.31,Single-ply,SBD,M
Boys,67.13,3,Seth Anderson,Bangs,66.77,210.92,115.67,213.19,539.77,Single-ply,SBD,M
Boys,67.13,4,Cesar Galvan,Dublin,62.51,185.97,111.13,204.12,501.22,Single-ply,SBD,M
Boys,67.13,5,Stephen Fritz,Lingleville,64.77,204.12,124.74,172.37,501.22,Single-ply,SBD,M
Boys,67.13,6,Billy Gann,Axtell,66.86,183.7,108.86,190.51,483.08,Single-ply,SBD,M
Boys,67.13,7,Fabian Solomon,Cameron Yoe,67.13,190.51,102.06,181.44,474,Single-ply,SBD,M
Boys,67.13,8,Cameron Naumann,Florence,65.32,174.63,104.33,192.78,471.74,Single-ply,SBD,M
Boys,67.13,9,Anthony Seider,Lometa,66.77,170.1,95.25,188.24,453.59,Single-ply,SBD,M
Boys,67.13,10,Jakendrick Eddie,Hearne,64.77,167.83,102.06,181.44,451.32,Single-ply,SBD,M
Boys,67.13,DQ,Alex Hernandex,Jarrell,64.68,,,,,Single-ply,SBD,M
Boys,67.13,DQ,Gavin Freeman,Little River Academy,66.77,,,,,Single-ply,SBD,M
Boys,74.84,1,Jesson Tarrant,Early,67.86,210.92,136.08,206.38,553.38,Single-ply,SBD,M
Boys,74.84,2,Colby Skarpa,West,68.67,217.72,129.27,199.58,546.58,Single-ply,SBD,M
Boys,74.84,3,John Hill,Rogers,73.3,208.65,122.47,210.92,542.04,Single-ply,SBD,M
Boys,74.84,4,Larson Hoffmeyer,Bosqueville,71.94,213.19,117.93,208.65,539.77,Single-ply,SBD,M
Boys,74.84,5,Stuart Cortez,Hamilton,72.76,204.12,129.27,192.78,526.17,Single-ply,SBD,M
Boys,74.84,6,Alex Flores,Anderson-Shiro,71.03,192.78,113.4,213.19,519.36,Single-ply,SBD,M
Boys,74.84,7,Zach Foster,Comanche,72.94,199.58,113.4,192.78,505.76,Single-ply,SBD,M
Boys,74.84,8,Dalton Boeche,Riesel,74.66,174.63,104.33,226.8,505.76,Single-ply,SBD,M
Boys,74.84,9,Javier Baez,San Saba,73.66,190.51,95.25,215.46,501.22,Single-ply,SBD,M
Boys,74.84,10,Hayden Clark,McGregor,69.04,158.76,127.01,181.44,467.2,Single-ply,SBD,M
Boys,74.84,11,Manuel DeLeon,Dublin,73.66,204.12,92.99,158.76,455.86,Single-ply,SBD,M
Boys,74.84,DQ,Gilbert Smith,West,71.76,,,,,Single-ply,SBD,M
Boys,82.1,1,Nate Gerik,West,81.83,249.48,154.22,249.48,653.17,Single-ply,SBD,M
Boys,82.1,2,Kade Mercer,Comanche,80.74,217.72,156.49,219.99,594.21,Single-ply,SBD,M
Boys,82.1,3,Lawson Kendrick,West,81.47,215.46,136.08,217.72,569.26,Single-ply,SBD,M
Boys,82.1,4,Adrien Garcia,Little River Academy,81.19,208.65,124.74,229.06,562.45,Single-ply,SBD,M
Boys,82.1,5,Cristian Vazquez,Dublin,78.65,213.19,129.27,213.19,555.65,Single-ply,SBD,M
Boys,82.1,6,TraShawn Hill,Moody,77.66,210.92,117.93,206.38,535.24,Single-ply,SBD,M
Boys,82.1,7,Tyler Burt,Cameron Yoe,78.29,197.31,127.01,197.31,521.63,Single-ply,SBD,M
Boys,82.1,8,Colby Henry,Lometa,78.83,181.44,131.54,197.31,510.29,Single-ply,SBD,M
Boys,82.1,9,Blaize Leatherwood,Dublin,80.2,188.24,113.4,204.12,505.76,Single-ply,SBD,M
Boys,82.1,10,Damon Harp,Groesbeck,81.74,192.78,108.86,197.31,498.95,Single-ply,SBD,M
Boys,82.1,11,Mason Wooten,Whitney,76.2,181.44,111.13,201.85,494.42,Single-ply,SBD,M
Boys,89.81,1,Clay Cooper,Holland,87.36,281.23,167.83,260.82,709.87,Single-ply,SBD,M
Boys,89.81,2,John Jackson #1,Hempstead,83.64,231.33,140.61,251.74,623.69,Single-ply,SBD,M
Boys,89.81,3,Jacob Winter,Lingleville,86.91,238.14,149.69,231.33,619.15,Single-ply,SBD,M
Boys,89.81,4,Ty Schafer,Early,87.54,222.26,136.08,235.87,594.21,Single-ply,SBD,M
Boys,89.81,5,Bodee Humphreys,Clifton,85.64,215.46,136.08,204.12,555.65,Single-ply,SBD,M
Boys,89.81,6,Johnny Jurado,Dublin,86.18,217.72,117.93,210.92,546.58,Single-ply,SBD,M
Boys,89.81,7,Tyler Bell,Dublin,87.54,197.31,140.61,204.12,542.04,Single-ply,SBD,M
Boys,89.81,8,Mason Davis,Rogers,83.55,204.12,115.67,213.19,532.97,Single-ply,SBD,M
Boys,89.81,9,Eli Salinas,San Saba,86.09,192.78,124.74,215.46,532.97,Single-ply,SBD,M
Boys,89.81,10,Noah Jenkins,McGregor,87.82,190.51,115.67,206.38,512.56,Single-ply,SBD,M
Boys,89.81,11,Corbin Preusse,Thorndale,88.27,204.12,115.67,190.51,510.29,Single-ply,SBD,M
Boys,89.81,DQ,Jc Chaney,Bruceville-Eddy,89.09,199.58,122.47,,,Single-ply,SBD,M
Boys,99.79,1,Evan Doskocil,Rogers,90.45,254.01,145.15,233.6,632.76,Single-ply,SBD,M
Boys,99.79,2,Joseph Watson,San Saba,93.62,226.8,145.15,244.94,616.89,Single-ply,SBD,M
Boys,99.79,3,Jack Northridge,Comanche,98.25,260.82,147.42,208.65,616.89,Single-ply,SBD,M
Boys,99.79,4,Jadyn Lehde,Early,99.61,254.01,136.08,226.8,616.89,Single-ply,SBD,M
Boys,99.79,5,Dylan Froehlich,Moody,93.62,240.4,124.74,233.6,598.74,Single-ply,SBD,M
Boys,99.79,6,Chad Roebuck,Anderson-Shiro,91.99,249.48,154.22,192.78,596.47,Single-ply,SBD,M
Boys,99.79,7,Mason Liles,Thorndale,97.07,229.06,131.54,229.06,589.67,Single-ply,SBD,M
Boys,99.79,8,Kyle Martinez,Blanco,93.26,233.6,136.08,215.46,585.13,Single-ply,SBD,M
Boys,99.79,9,Eduardo Gil,Cameron Yoe,96.25,226.8,151.95,206.38,585.13,Single-ply,SBD,M
Boys,99.79,10,Cameron Riggins,Burton,99.7,240.4,111.13,204.12,555.65,Single-ply,SBD,M
Boys,99.79,11,Blake Rogers #2,Bruceville-Eddy,94.62,201.85,124.74,226.8,553.38,Single-ply,SBD,M
Boys,99.79,12,Brandon Vasquez,Florence,99.7,195.04,129.27,215.46,539.77,Single-ply,SBD,M
Boys,109.77,1,Chandler Strmiska,Little River Academy,107.59,288.03,238.14,278.96,805.13,Single-ply,SBD,M
Boys,109.77,2,Clayton Pierce,San Saba,106.5,283.5,170.1,249.48,703.07,Single-ply,SBD,M
Boys,109.77,3,Wyatt Gardner,Little River Academy,105.23,235.87,167.83,249.48,653.17,Single-ply,SBD,M
Boys,109.77,4,Jared Ricks,Dublin,108.59,219.99,170.1,235.87,625.96,Single-ply,SBD,M
Boys,109.77,5,Ruben Vera,West,106.5,238.14,122.47,226.8,587.4,Single-ply,SBD,M
Boys,109.77,6,Joseph Brotherton,Groesbeck,108.14,226.8,149.69,210.92,587.4,Single-ply,SBD,M
Boys,109.77,7,Dominic Lewis,Cameron Yoe,108.5,226.8,136.08,217.72,580.6,Single-ply,SBD,M
Boys,109.77,8,Jacob Pedroza,Thorndale,109.32,242.67,131.54,185.97,560.19,Single-ply,SBD,M
Boys,109.77,9,Chance Horton,Blanco,109.59,226.8,147.42,183.7,557.92,Single-ply,SBD,M
Boys,109.77,10,Landin Short,San Saba,100.24,199.58,142.88,210.92,553.38,Single-ply,SBD,M
Boys,109.77,11,Genero Hernandez,Comfort,104.87,204.12,127.01,208.65,539.77,Single-ply,SBD,M
Boys,109.77,12,Ethen Portillo,Early,107.95,226.8,102.06,204.12,532.97,Single-ply,SBD,M
Boys,124.74,1,Kendal Beck,Comanche,116.03,283.5,204.12,288.03,775.64,Single-ply,SBD,M
Boys,124.74,2,Logan Gillem,Early,120.93,258.55,181.44,263.08,703.07,Single-ply,SBD,M
Boys,124.74,3,Azreael Valle,Luling,123.01,258.55,156.49,224.53,639.57,Single-ply,SBD,M
Boys,124.74,4,Thomas Clawson,Jarrell,117.12,226.8,156.49,229.06,612.35,Single-ply,SBD,M
Boys,124.74,5,Clayton Herridge,Groesbeck,123.92,226.8,165.56,208.65,601.01,Single-ply,SBD,M
Boys,124.74,6,Cesar Reza,Brady,124.38,233.6,113.4,233.6,580.6,Single-ply,SBD,M
Boys,124.74,DQ,Adrian Spencer,Florence,114.4,,,,,Single-ply,SBD,M
Boys,124.74,DQ,Oakley Jones,Florence,116.3,,,,,Single-ply,SBD,M
Boys,124.74,DQ,Astin Carr,Hamilton,112.49,269.89,179.17,,,Single-ply,SBD,M
Boys,124.74,DQ,Robert Barrera,Rockdale,119.2,,,,,Single-ply,SBD,M
Boys,124.74,DQ,Shawntay Owens,Whitney,122.29,263.08,154.22,,,Single-ply,SBD,M
Boys,124.74,DQ,Jorde Del Rio,Groesbeck,117.84,233.6,136.08,,,Single-ply,SBD,M
Boys,124.74+,1,Seth Kohlscheen,Crawford,143.7,362.87,185.97,276.69,825.54,Single-ply,SBD,M
Boys,124.74+,2,Corey Brooks #1,Thorndale,141.43,317.51,188.24,235.87,741.62,Single-ply,SBD,M
Boys,124.74+,3,Jonathyn Murry,Luling,152.23,299.37,185.97,244.94,730.28,Single-ply,SBD,M
Boys,124.74+,4,Victor Killebrew,Hearne,128.64,258.55,142.88,233.6,635.03,Single-ply,SBD,M
Boys,124.74+,5,Anthony Melendez,Comfort,169.46,226.8,174.63,219.99,621.42,Single-ply,SBD,M
Boys,124.74+,6,Ethan Cummins,Rio Vista,129.64,226.8,165.56,213.19,605.55,Single-ply,SBD,M
Boys,124.74+,7,Griffin Beard,Lago Vista,125.37,260.82,124.74,215.46,601.01,Single-ply,SBD,M
Boys,124.74+,8,Stephen Locklear,Dublin,129.36,219.99,149.69,217.72,587.4,Single-ply,SBD,M
Boys,124.74+,9,Juan Rodriguez,Clifton,161.75,235.87,149.69,201.85,587.4,Single-ply,SBD,M
Boys,124.74+,10,Marshall Mays,Holland,125.74,238.14,117.93,206.38,562.45,Single-ply,SBD,M
Boys,124.74+,DQ,Troy Dunagan,Florence,159.39,,,,,Single-ply,SBD,M
Boys,124.74+,DQ,Stran Burrow,Dublin,130.36,229.06,151.95,,,Single-ply,SBD,M
