Division,WeightClassKg,Place,Name,Team,BodyweightKg,Best3SquatKg,Best3BenchKg,Best3DeadliftKg,TotalKg,Equipment,Event,Sex
Boys,51.71,1,Eric Thompson,Northwest Eaton,51.71,90.72,52.16,113.4,256.28,Single-ply,SBD,M
Boys,51.71,2,Jackson Haslam,Northwest Nelson,50.08,72.57,43.09,74.84,190.51,Single-ply,SBD,M
Boys,55.79,1,Ja'Quez Goodson,Northwest Eaton,55.57,111.13,56.7,117.93,285.76,Single-ply,SBD,M
Boys,55.79,2,Zeke Makarem,Justin Northwest,53.98,106.59,56.7,115.67,278.96,Single-ply,SBD,M
Boys,55.79,3,Victor Hernandez #5,Northwest Nelson,55.11,102.06,70.31,102.06,274.42,Single-ply,SBD,M
Boys,59.87,1,Nico Fabila,Northwest Eaton,59.87,113.4,65.77,120.2,299.37,Single-ply,SBD,M
Boys,59.87,2,Maxwell Groves,Northwest Nelson,57.61,97.52,45.36,95.25,238.14,Single-ply,SBD,M
Boys,59.87,DQ,Jacob Burress,Justin Northwest,56.43,,,,,Single-ply,SBD,M
Boys,67.13,1,Daniel Bin-Mitende,Justin Northwest,67.04,149.69,83.91,154.22,387.82,Single-ply,SBD,M
Boys,67.13,2,Jordan Throckmorton,Justin Northwest,66.77,131.54,83.91,147.42,362.87,Single-ply,SBD,M
Boys,74.84,1,Syrus Moore,Justin Northwest,72.71,204.12,106.59,201.85,512.56,Single-ply,SBD,M
Boys,74.84,2,Corey Duffey,Northwest Eaton,74.84,190.51,108.86,190.51,489.88,Single-ply,SBD,M
Boys,74.84,3,Coltin Condor,Northwest Eaton,74.84,161.03,92.99,167.83,421.84,Single-ply,SBD,M
Boys,74.84,4,Corey Fritchen,Northwest Eaton,74.48,149.69,88.45,176.9,415.04,Single-ply,SBD,M
Boys,74.84,5,Jose Coubles,Northwest Eaton,72.35,136.08,95.25,172.37,403.7,Single-ply,SBD,M
Boys,74.84,6,Nick Cerniauskis,Northwest Eaton,69.26,147.42,83.91,165.56,396.89,Single-ply,SBD,M
Boys,74.84,7,Justin Chambers,Northwest Eaton,74.39,124.74,92.99,158.76,376.48,Single-ply,SBD,M
Boys,74.84,8,Ryan Nguyen,Northwest Nelson,74.84,136.08,83.91,151.95,371.95,Single-ply,SBD,M
Boys,74.84,DQ,Austin Pence,Northwest Eaton,74.07,,,,,Single-ply,SBD,M
Boys,82.1,1,Titus Swen,Northwest Eaton,80.97,170.1,108.86,181.44,460.4,Single-ply,SBD,M
Boys,82.1,2,James Gilbert #2,Justin Northwest,79.56,170.1,106.59,174.63,451.32,Single-ply,SBD,M
Boys,82.1,3,Kenneth Franklin,Northwest Eaton,76.43,163.29,83.91,181.44,428.64,Single-ply,SBD,M
Boys,82.1,4,Zach Sheehan,Northwest Eaton,79.06,158.76,86.18,165.56,410.5,Single-ply,SBD,M
Boys,82.1,5,Hunter Johnson #6,Justin Northwest,78.65,147.42,74.84,158.76,381.02,Single-ply,SBD,M
Boys,89.81,1,Carson Lane,Justin Northwest,84.28,158.76,115.67,195.04,469.47,Single-ply,SBD,M
Boys,89.81,2,Rhett Ryan,Northwest Nelson,85.77,117.93,104.33,124.74,347,Single-ply,SBD,M
Boys,89.81,DQ,Jacob Powers,Justin Northwest,84.05,,,,,Single-ply,SBD,M
Boys,99.79,1,Willie Callum,Justin Northwest,92.58,213.19,120.2,213.19,546.58,Single-ply,SBD,M
Boys,99.79,2,Joseph Herrera,Northwest Nelson,98.07,217.72,129.27,199.58,546.58,Single-ply,SBD,M
Boys,99.79,3,Spencer King,Justin Northwest,99.43,188.24,102.06,195.04,485.34,Single-ply,SBD,M
Boys,99.79,4,Jaxon Skelton,Northwest Eaton,95.48,170.1,106.59,181.44,458.13,Single-ply,SBD,M
Boys,99.79,5,Scout Cooper,Northwest Eaton,94.08,185.97,92.99,174.63,453.59,Single-ply,SBD,M
Boys,99.79,6,Mohammed Osman,Northwest Nelson,96.34,154.22,104.33,181.44,439.98,Single-ply,SBD,M
Boys,99.79,7,Santos Segura,Justin Northwest,99.7,163.29,86.18,163.29,412.77,Single-ply,SBD,M
Boys,99.79,8,Trevor Nwosu,Northwest Nelson,94.08,142.88,74.84,167.83,385.55,Single-ply,SBD,M
Boys,99.79,9,Clay Sitton,Justin Northwest,96.66,124.74,72.57,147.42,344.73,Single-ply,SBD,M
Boys,99.79,10,Gavin Mull,Northwest Nelson,94.94,108.86,52.16,136.08,297.1,Single-ply,SBD,M
Boys,99.79,DQ,Jacob Gibson,Justin Northwest,91.17,,,,,Single-ply,SBD,M
Boys,99.79,DQ,Jack Lanza,Northwest Nelson,93.98,,,,,Single-ply,SBD,M
Boys,109.77,1,Travis Worthen,Justin Northwest,100.88,192.78,106.59,195.04,494.42,Single-ply,SBD,M
Boys,109.77,2,Cole Todd,Northwest Eaton,109.23,181.44,104.33,208.65,494.42,Single-ply,SBD,M
Boys,109.77,3,Jared Bazley,Northwest Nelson,100.61,181.44,120.2,185.97,487.61,Single-ply,SBD,M
Boys,109.77,4,Austin O'Neal,Northwest Nelson,108.41,181.44,104.33,199.58,485.34,Single-ply,SBD,M
Boys,109.77,5,Connor Stillwell,Northwest Nelson,108.68,170.1,102.06,170.1,442.25,Single-ply,SBD,M
Boys,109.77,6,Hunter Davis,Northwest Nelson,105.96,165.56,113.4,154.22,433.18,Single-ply,SBD,M
Boys,109.77,7,Micah German,Justin Northwest,104.73,147.42,122.47,158.76,428.64,Single-ply,SBD,M
Boys,109.77,8,Eric Francowiak,Justin Northwest,100.43,147.42,83.91,158.76,390.09,Single-ply,SBD,M
Boys,109.77,DQ,Cole Grissom,Northwest Eaton,99.84,167.83,,,,Single-ply,SBD,M
Boys,124.74,1,Matt Dotson,Northwest Nelson,110.04,217.72,147.42,188.24,553.38,Single-ply,SBD,M
Boys,124.74,2,Tristian Allen,Northwest Nelson,116.21,204.12,97.52,199.58,501.22,Single-ply,SBD,M
Boys,124.74,3,Zach Newman,Justin Northwest,114.8,185.97,102.06,181.44,469.47,Single-ply,SBD,M
Boys,124.74,4,Bryan Pechal,Northwest Nelson,122.92,161.03,97.52,167.83,426.38,Single-ply,SBD,M
Boys,124.74,5,Ken Wittmayer,Northwest Nelson,109.86,140.61,99.79,172.37,412.77,Single-ply,SBD,M
Boys,124.74,6,Hayden Jones,Northwest Nelson,114.8,104.33,77.11,129.27,310.71,Single-ply,SBD,M
Boys,124.74,7,Chris Miller,Northwest Nelson,120.38,106.59,68.04,117.93,292.57,Single-ply,SBD,M
Boys,124.74+,1,Tristan Vaitai,Northwest Nelson,167.97,199.58,106.59,192.78,498.95,Single-ply,SBD,M
Boys,124.74+,2,Josh Campbell,Justin Northwest,138.44,199.58,108.86,188.24,496.68,Single-ply,SBD,M
Boys,124.74+,3,Anthony Crawford,Justin Northwest,130.04,176.9,120.2,174.63,471.74,Single-ply,SBD,M
